mi-primera-pagina-web
…
##  $ biomdw : num [1:150] 51.8 37.8 83.6 30.9 80.2 ...
##  $ hi     : num [1:150] 0.45 0.43 0.455 0.437 0.638 ...
##  $ ttrans : num [1:150] 4.5 3.54 8.39 2.9 7.37 ...
##  $ wue    : num [1:150] 11.51 10.69 9.97 10.65 10.88 ...
##  $ twue   : num [1:150] 4.4 4.99 4.53 4.65 6.94 ...
##  $ lfa    : num [1:150] 2900 2619 7579 2450 5413 ...
model <- remove_outliers(
  data = fb, 
  formula = lfa ~ riego + geno + riego*geno + (1|bloque), 
  plot_diag = TRUE 
)
model
## $data
## $data$raw
## # A tibble: 150 × 5
##    index riego    geno  bloque   lfa
##    <chr> <chr>    <chr> <chr>  <dbl>
##  1 1     sequia   G01   II     2900 
##  2 2     sequia   G02   IV     2619.
##  3 3     irrigado G01   III    7579.
##  4 4     sequia   G02   I      2450.
##  5 5     irrigado G03   II     5413.
##  6 6     irrigado G04   V      9791.
##  7 7     irrigado G01   I      7038.
##  8 8     irrigado G05   IV     9794.
##  9 9     sequia   G06   II     3199.
## 10 10    sequia   G05   I      1658.
## # ℹ 140 more rows
## 
## $data$clean
##     index    riego geno bloque      lfa
## 1       1   sequia  G01     II  2900.00
## 2       2   sequia  G02     IV  2618.85
## 3       3 irrigado  G01    III  7578.79
## 4       4   sequia  G02      I  2449.59
## 5       5 irrigado  G03     II  5412.51
…
